C:\projects\webapp\src\main\java\co\uk\nbrown\FilterColumn.java
C:\projects\webapp\src\main\java\co\uk\nbrown\ResultView.java
C:\projects\webapp\src\main\java\co\uk\nbrown\Contender.java
C:\projects\webapp\src\main\java\co\uk\nbrown\Points.java
C:\projects\webapp\src\main\java\co\uk\nbrown\Contenders.java
C:\projects\webapp\src\main\java\co\uk\nbrown\Driver.java
C:\projects\webapp\src\main\java\co\uk\nbrown\Team.java
C:\projects\webapp\src\main\java\co\uk\nbrown\MainApp.java
C:\projects\webapp\src\main\java\co\uk\nbrown\WebController.java
C:\projects\webapp\src\main\java\co\uk\nbrown\MainPage.java
